﻿{
  "data": [
    {
      "id": 0,
      "name": "The Dice",
      "effect": "สามารถทอยเต๋าต่อได้เลย",
      "price": 15,
      "remainUse": 0,
      "remainTurn": 0,
      "isEffectiveEveryTurn": false,
      "isReset": false,
      "typeBuff": 1,
	  "type": 2,
      "isImmediateDestroy": true
    },
    {
      "id": 1,
      "name": "Red Potion",
      "effect": "เพิ่มเลือด 3",
      "price": 20,
      "remainUse": 0,
      "remainTurn": 0,
      "isEffectiveEveryTurn": false,
      "isReset": false,
      "typeBuff": 1,
	  "type": 0,
      "isImmediateDestroy": true
    },
    {
      "id": 2,
      "name": "Wing",
      "effect": "Teleport to a random place",
      "price": 20,
      "remainUse": 0,
      "remainTurn": 0,
      "isEffectiveEveryTurn": false,
      "isReset": false,
      "typeBuff": 1,
	  "type": 2,
      "isImmediateDestroy": true
    },
    {
      "id": 3,
      "name": "Tome of knowledge",
      "effect": "Level + 1",
      "price": 30,
      "remainUse": 0,
      "remainTurn": 0,
      "isEffectiveEveryTurn": false,
      "isReset": false,
      "typeBuff": 1,
	  "type": 0,
      "isImmediateDestroy": true
    },
    {
      "id": 4,
      "name": "Goddess's Tear",
      "effect": "หากเลือดต่ำกว่า 2 จะเพิ่มเลือด 4 หรือหากโดนดาเมจจนตาย เลือดจะเหลือ 1",
      "price": 40,
      "remainUse": 0,
      "remainTurn": 0,
      "isEffectiveEveryTurn": false,
      "isReset": false,
      "typeBuff": 1,
	  "type": 0,
      "isImmediateDestroy": false
    },
    {
      "id": 5,
      "name": "Attack Potion",
      "effect": "Attack +2 (3 Turn)",
      "price": 40,
      "remainUse": 0,
      "remainTurn": 3,
      "isEffectiveEveryTurn": false,
      "isReset": true,
      "typeBuff": 1,
	  "type": 0,
      "isImmediateDestroy": false
    },
    {
      "id": 6,
      "name": "Defense Potion",
      "effect": "Defense +2 (3 Turn)",
      "price": 40,
      "remainUse": 0,
      "remainTurn": 3,
      "isEffectiveEveryTurn": false,
      "isReset": true,
      "typeBuff": 1,
	  "type": 0,
      "isImmediateDestroy": false
    }
  ]
}